# Blender v2.79 (sub 0) OBJ File: '24.wav.blend'
# www.blender.org
mtllib 20.wav.mtl
o Cube
v 2.000000 3.228635 0.119891
v 2.000000 0.240737 -1.385553
v 1.153527 0.005188 -2.000000
v -0.591481 2.033630 -2.000000
v -0.138643 4.600170 -0.441635
v 0.871314 4.600170 0.149881
v -1.118515 4.600170 1.461975
v -1.601563 4.178679 2.000001
v 1.905058 -0.261341 2.000000
v 2.000000 -0.301496 1.958307
v -1.353448 0.475366 -2.000000
v -2.000000 -0.259695 -1.442211
v -2.000000 3.363852 2.000000
v -2.000000 -2.436661 2.000000
v -2.000000 -4.600170 1.030516
v 0.473975 -4.600170 0.412965
v 2.000000 -1.181415 1.564009
v -2.000000 -4.600170 0.551309
v 2.000000 -1.009071 -0.658984
v 0.462193 -4.600170 0.063625
v 0.176556 -4.600170 -0.189924
v 0.541332 -0.929580 -2.000000
vt 0.593355 0.733785
vt 0.521048 0.530415
vt 0.563337 0.501854
vt 0.711355 0.614090
vt 0.747792 0.795483
vt 0.690534 0.810432
vt 0.136385 0.988935
vt 0.069692 0.944492
vt 0.136385 0.784250
vt 0.209219 0.000000
vt 0.243149 0.028225
vt 0.014853 0.386209
vt 0.008479 0.389893
vt 0.000000 0.124946
vt 0.073621 0.014043
vt 0.521048 0.220405
vt 0.521048 0.354223
vt 0.485612 0.417348
vt 0.266931 0.106171
vt 0.266931 0.036196
vt 0.301111 0.000000
vt 0.422046 0.000000
vt 0.257442 0.585771
vt 0.246386 0.784250
vt 0.085656 0.784250
vt 0.003983 0.470616
vt 0.266931 0.098401
vt 0.328521 0.790092
vt 0.266931 0.604298
vt 0.358965 0.790092
vt 0.794360 0.237180
vt 0.916182 0.334880
vt 0.923281 0.456884
vt 0.755671 0.625024
vt 0.747792 0.288565
vt 0.983675 0.013132
vt 1.000000 0.018482
vt 1.000000 0.369965
vt 0.970321 0.449747
vt 0.963710 0.000000
vt 0.722705 0.470776
vt 0.579371 0.411671
vt 0.529660 0.074739
vt 0.662652 0.000000
vt 0.747792 0.383610
vt 0.039296 0.997702
vt 0.000000 0.807525
vt 0.017096 0.784250
vt 0.039296 0.784914
vt 0.069692 1.000000
vn 0.4635 0.3987 -0.7913
vn 0.0000 1.0000 -0.0000
vn 0.5048 0.3987 0.7656
vn -0.8154 0.3987 -0.4197
vn 0.2221 -0.3987 0.8898
vn -0.0000 -0.0000 1.0000
vn -1.0000 -0.0000 0.0000
vn 1.0000 0.0000 0.0000
vn 0.6088 -0.3987 -0.6858
vn 0.9166 -0.3987 -0.0309
vn -0.2956 -0.3987 -0.8681
vn 0.0000 -1.0000 0.0000
vn -0.0000 0.0000 -1.0000
usemtl Material.002
s 1
f 1/1/1 2/2/1 3/3/1 4/4/1 5/5/1 6/6/1
f 6/7/2 5/8/2 7/9/2
f 7/10/3 8/11/3 9/12/3 10/13/3 1/14/3 6/15/3
f 4/16/4 11/17/4 12/18/4 13/19/4 8/20/4 7/21/4 5/22/4
f 9/12/5 14/23/5 15/24/5 16/25/5 17/26/5 10/13/5
f 14/23/6 9/12/6 8/11/6 13/27/6
f 15/28/7 14/29/7 13/19/7 12/18/7 18/30/7
f 17/31/8 19/32/8 2/33/8 1/34/8 10/35/8
f 2/33/9 19/32/9 20/36/9 21/37/9 22/38/9 3/39/9
f 20/36/10 19/32/10 17/31/10 16/40/10
f 11/41/11 22/42/11 21/43/11 18/44/11 12/45/11
f 18/46/12 21/47/12 20/48/12 16/49/12 15/50/12
f 22/42/13 11/41/13 4/4/13 3/3/13
