%YAML 1.1
%TAG !u! tag:unity3d.com,2011:
--- !u!1045 &1
EditorBuildSettings:
  m_ObjectHideFlags: 0
  serializedVersion: 2
  m_Scenes:
  - enabled: 1
    path: Assets/MemoryBox/Scenes/arScene.unity
    guid: bd7bc64c8c13fa04e8ed5e16c5042d7f
